{
  "info": {
    "count": 50,
    "pages": 3,
    "next": "http://demo7101725.mockable.io/api/recipe?page=3",
    "prev": "http://demo7101725.mockable.io/api/recipe?page=1"
  },
  "results": [
    {
      "id": 11,
      "name": "Receta de Tortas locas",
      "location": {
        "latitude": "6.317450",
        "longitude": "-75.565558"
      },
      "image": "https://cdn0.recetasgratis.net/es/posts/4/9/8/tortas_locas_76894_600.webp"
    },
    {
      "id": 12,
      "name": "Torta de guanábana",
      "location": {
        "latitude": "6.346968",
        "longitude": "-75.607520"
      },
      "image": "https://cdn0.recetasgratis.net/es/posts/2/1/8/torta_de_guanabana_74812_600.webp"
    },
    {
      "id": 13,
      "name": "Torta dobos",
      "location": {
        "latitude": "6.314395",
        "longitude": "-75.562352"
      },
      "image": "https://cdn0.recetasgratis.net/es/posts/1/1/6/torta_dobos_75611_600.webp"
    },
    {
      "id": 14,
      "name": "Torta quesillo",
      "location": {
        "latitude": "6.316549",
        "longitude": "-75.557363"
      },
      "image": "https://cdn0.recetasgratis.net/es/posts/7/8/4/torta_quesillo_74487_600.webp"
    },
    {
      "id": 15,
      "name": "Pastel de zanahoria fácil",
      "location": {
        "latitude": "6.316218",
        "longitude": "-75.557331"
      },
      "image": "https://cdn0.recetasgratis.net/es/posts/0/7/4/pastel_de_zanahoria_facil_9470_600.webp"
    },
    {
      "id": 16,
      "name": "Pastel de nuez facil",
      "location": {
        "latitude": "6.301506",
        "longitude": "-75.559483"
      },
      "image": "https://cdn0.recetasgratis.net/es/posts/2/3/9/pastel_de_nuez_facil_34932_600.webp"
    },
    {
      "id": 17,
      "name": "Pastel de torrijas",
      "location": {
        "latitude": "6.250888",
        "longitude": " -75.562208"
      },
      "image": "https://cdn0.recetasgratis.net/es/posts/0/8/8/pastel_de_torrijas_75880_600.webp"
    },
    {
      "id": 18,
      "name": "Pastel de zanahoria",
      "location": {
        "latitude": "6.251160",
        "longitude": " -75.566001"
      },
      "image": "https://cdn0.recetasgratis.net/es/posts/7/5/6/pastel_de_zanahoria_32657_600.webp"
    },
    {
      "id": 19,
      "name": "Bizcocho de zanahoria de la abuela",
      "location": {
        "latitude": "6.249070",
        "longitude": "-75.556946"
      },
      "image": "https://cdn0.recetasgratis.net/es/posts/2/0/7/bizcocho_de_zanahoria_de_la_abuela_76702_600.webp"
    },
    {
      "id": 20,
      "name": "Bizcocho de plátano y chocolate",
      "location": {
        "latitude": "6.261086",
        "longitude": "-75.571180"
      },
      "image": "https://cdn0.recetasgratis.net/es/posts/2/4/6/bizcocho_de_platano_y_chocolate_76642_600.webp"
    }
  ]
}